// Jest Snapshot v1, https://goo.gl/fbAQLP

exports[`main has a snapshot 1`] = `
Array [
  "readAny",
  "requireAny",
  "callbackToTheFutureWithCancel",
  "parallel",
  "constants",
  "close",
  "fdatasync",
  "fsync",
  "rmdir",
  "unlink",
  "access",
  "chmod",
  "fchmod",
  "fstat",
  "ftruncate",
  "lchmod",
  "link",
  "mkdir",
  "rename",
  "truncate",
  "appendFile",
  "chown",
  "copyFile",
  "fchown",
  "futimes",
  "lchown",
  "symlink",
  "utimes",
  "writeFile",
  "createReadStream",
  "createWriteStream",
  "lstat",
  "mkdtemp",
  "readFile",
  "readdir",
  "readlink",
  "realpath",
  "stat",
  "open",
  "read",
  "write",
]
`;
